/home/athuls89/Desktop/OSL/msr/calcite/myprocessor/edge-processor/nifi-edge-processors/src/main/java/com/jarvis/processors/edge/PingMeshData.java
/home/athuls89/Desktop/OSL/msr/calcite/myprocessor/edge-processor/nifi-edge-processors/src/main/java/com/jarvis/processors/edge/CustomMapOperator.java
/home/athuls89/Desktop/OSL/msr/calcite/myprocessor/edge-processor/nifi-edge-processors/src/main/java/com/jarvis/processors/edge/MyProcessorFullGrpby.java
/home/athuls89/Desktop/OSL/msr/calcite/myprocessor/edge-processor/nifi-edge-processors/src/main/java/com/jarvis/processors/edge/QueueWrapper.java
/home/athuls89/Desktop/OSL/msr/calcite/myprocessor/edge-processor/nifi-edge-processors/src/main/java/com/jarvis/processors/edge/CustomFullGroupbyOperator.java
/home/athuls89/Desktop/OSL/msr/calcite/myprocessor/edge-processor/nifi-edge-processors/src/main/java/com/jarvis/processors/edge/CustomAggOperator.java
/home/athuls89/Desktop/OSL/msr/calcite/myprocessor/edge-processor/nifi-edge-processors/src/main/java/com/jarvis/processors/edge/JarvisLogger.java
/home/athuls89/Desktop/OSL/msr/calcite/myprocessor/edge-processor/nifi-edge-processors/src/main/java/com/jarvis/processors/edge/SyncQueueWrapper.java
/home/athuls89/Desktop/OSL/msr/calcite/myprocessor/edge-processor/nifi-edge-processors/src/main/java/com/jarvis/processors/edge/PingMeshDataOuter.java
/home/athuls89/Desktop/OSL/msr/calcite/myprocessor/edge-processor/nifi-edge-processors/src/main/java/com/jarvis/processors/edge/CustomGroupingOperator.java
/home/athuls89/Desktop/OSL/msr/calcite/myprocessor/edge-processor/nifi-edge-processors/src/main/java/com/jarvis/processors/edge/CustomOperator.java
/home/athuls89/Desktop/OSL/msr/calcite/myprocessor/edge-processor/nifi-edge-processors/src/main/java/com/jarvis/processors/edge/GrpedObsWithTime.java
/home/athuls89/Desktop/OSL/msr/calcite/myprocessor/edge-processor/nifi-edge-processors/src/main/java/com/jarvis/processors/edge/IQueue.java
/home/athuls89/Desktop/OSL/msr/calcite/myprocessor/edge-processor/nifi-edge-processors/src/main/java/com/jarvis/processors/edge/PingMeshKryoWithTimePool.java
/home/athuls89/Desktop/OSL/msr/calcite/myprocessor/edge-processor/nifi-edge-processors/src/main/java/com/jarvis/processors/edge/MyProcessorSequential.java
/home/athuls89/Desktop/OSL/msr/calcite/myprocessor/edge-processor/nifi-edge-processors/src/main/java/com/jarvis/processors/edge/PingMeshKryoWithTime.java
/home/athuls89/Desktop/OSL/msr/calcite/myprocessor/edge-processor/nifi-edge-processors/src/main/java/com/jarvis/processors/edge/OutputQueueWrapper.java
/home/athuls89/Desktop/OSL/msr/calcite/myprocessor/edge-processor/nifi-edge-processors/src/main/java/com/jarvis/processors/edge/MyProcessor.java
/home/athuls89/Desktop/OSL/msr/calcite/myprocessor/edge-processor/nifi-edge-processors/src/main/java/com/jarvis/processors/edge/PingMeshKryo.java
/home/athuls89/Desktop/OSL/msr/calcite/myprocessor/edge-processor/nifi-edge-processors/src/main/java/com/jarvis/processors/edge/SrcClusterStatsKryo.java
/home/athuls89/Desktop/OSL/msr/calcite/myprocessor/edge-processor/nifi-edge-processors/src/main/java/com/jarvis/processors/edge/CloudUploader.java
