<?xml version="1.0" encoding="UTF-8"?>
<testsuite xmlns:xsi="http://www.w3.org/2001/XMLSchema-instance" xsi:noNamespaceSchemaLocation="https://maven.apache.org/surefire/maven-surefire-plugin/xsd/surefire-test-report.xsd" name="com.jarvis.processors.edge.MyProcessorTest" time="0.905" tests="1" errors="0" skipped="0" failures="0">
  <properties>
    <property name="awt.toolkit" value="sun.awt.X11.XToolkit"/>
    <property name="file.encoding.pkg" value="sun.io"/>
    <property name="java.specification.version" value="1.8"/>
    <property name="sun.cpu.isalist" value=""/>
    <property name="sun.jnu.encoding" value="UTF-8"/>
    <property name="java.class.path" value="/home/athuls89/Desktop/OSL/msr/calcite/myprocessor/edge-processor/nifi-edge-processors/target/test-classes:/home/athuls89/Desktop/OSL/msr/calcite/myprocessor/edge-processor/nifi-edge-processors/target/classes:/root/.m2/repository/com/esotericsoftware/kryo/5.0.0-RC4/kryo-5.0.0-RC4.jar:/root/.m2/repository/com/esotericsoftware/reflectasm/1.11.8/reflectasm-1.11.8.jar:/root/.m2/repository/org/objenesis/objenesis/3.0.1/objenesis-3.0.1.jar:/root/.m2/repository/com/esotericsoftware/minlog/1.3.1/minlog-1.3.1.jar:/root/.m2/repository/io/reactivex/rxjava-string/1.1.1/rxjava-string-1.1.1.jar:/root/.m2/repository/commons-io/commons-io/2.5/commons-io-2.5.jar:/root/.m2/repository/io/reactivex/rxjava/1.2.3/rxjava-1.2.3.jar:/root/.m2/repository/com/google/protobuf/protobuf-java/3.7.1/protobuf-java-3.7.1.jar:/root/.m2/repository/org/apache/nifi/nifi-api/1.7.0/nifi-api-1.7.0.jar:/root/.m2/repository/org/apache/nifi/nifi-utils/1.7.0/nifi-utils-1.7.0.jar:/root/.m2/repository/org/apache/nifi/nifi-mock/1.7.0/nifi-mock-1.7.0.jar:/root/.m2/repository/org/apache/nifi/nifi-framework-api/1.7.0/nifi-framework-api-1.7.0.jar:/root/.m2/repository/org/apache/nifi/nifi-expression-language/1.7.0/nifi-expression-language-1.7.0.jar:/root/.m2/repository/org/antlr/antlr-runtime/3.5.2/antlr-runtime-3.5.2.jar:/root/.m2/repository/com/jayway/jsonpath/json-path/2.4.0/json-path-2.4.0.jar:/root/.m2/repository/net/minidev/json-smart/2.3/json-smart-2.3.jar:/root/.m2/repository/net/minidev/accessors-smart/1.2/accessors-smart-1.2.jar:/root/.m2/repository/org/ow2/asm/asm/5.0.4/asm-5.0.4.jar:/root/.m2/repository/com/fasterxml/jackson/core/jackson-databind/2.9.5/jackson-databind-2.9.5.jar:/root/.m2/repository/com/fasterxml/jackson/core/jackson-annotations/2.9.0/jackson-annotations-2.9.0.jar:/root/.m2/repository/com/fasterxml/jackson/core/jackson-core/2.9.5/jackson-core-2.9.5.jar:/root/.m2/repository/org/apache/commons/commons-lang3/3.7/commons-lang3-3.7.jar:/root/.m2/repository/org/apache/nifi/nifi-data-provenance-utils/1.7.0/nifi-data-provenance-utils-1.7.0.jar:/root/.m2/repository/org/apache/nifi/nifi-security-utils/1.7.0/nifi-security-utils-1.7.0.jar:/root/.m2/repository/commons-codec/commons-codec/1.11/commons-codec-1.11.jar:/root/.m2/repository/org/bouncycastle/bcpkix-jdk15on/1.59/bcpkix-jdk15on-1.59.jar:/root/.m2/repository/org/bouncycastle/bcprov-jdk15on/1.59/bcprov-jdk15on-1.59.jar:/root/.m2/repository/org/apache/nifi/nifi-properties-loader/1.7.0/nifi-properties-loader-1.7.0.jar:/root/.m2/repository/ch/qos/logback/logback-classic/1.2.3/logback-classic-1.2.3.jar:/root/.m2/repository/ch/qos/logback/logback-core/1.2.3/logback-core-1.2.3.jar:/root/.m2/repository/org/apache/nifi/nifi-properties/1.7.0/nifi-properties-1.7.0.jar:/root/.m2/repository/org/slf4j/slf4j-simple/1.7.25/slf4j-simple-1.7.25.jar:/root/.m2/repository/org/slf4j/slf4j-api/1.7.25/slf4j-api-1.7.25.jar:/root/.m2/repository/junit/junit/4.12/junit-4.12.jar:/root/.m2/repository/org/hamcrest/hamcrest-core/1.3/hamcrest-core-1.3.jar:/root/.m2/repository/io/reactivex/rxjava2/rxjava/2.2.17/rxjava-2.2.17.jar:/root/.m2/repository/org/reactivestreams/reactive-streams/1.0.3/reactive-streams-1.0.3.jar:/root/.m2/repository/io/reactivex/rxjava-math/1.0.0/rxjava-math-1.0.0.jar:/root/.m2/repository/org/mockito/mockito-core/1.10.19/mockito-core-1.10.19.jar:/root/.m2/repository/org/codehaus/groovy/groovy-all/2.4.13/groovy-all-2.4.13.jar:"/>
    <property name="java.vm.vendor" value="Private Build"/>
    <property name="sun.arch.data.model" value="64"/>
    <property name="java.vendor.url" value="http://java.oracle.com/"/>
    <property name="user.timezone" value=""/>
    <property name="java.vm.specification.version" value="1.8"/>
    <property name="os.name" value="Linux"/>
    <property name="user.country" value="US"/>
    <property name="sun.java.launcher" value="SUN_STANDARD"/>
    <property name="sun.boot.library.path" value="/usr/lib/jvm/java-8-openjdk-amd64/jre/lib/amd64"/>
    <property name="sun.java.command" value="/home/athuls89/Desktop/OSL/msr/calcite/myprocessor/edge-processor/nifi-edge-processors/target/surefire/surefirebooter6538287704698114887.jar /home/athuls89/Desktop/OSL/msr/calcite/myprocessor/edge-processor/nifi-edge-processors/target/surefire 2020-03-16T16-35-35_084-jvmRun1 surefire2104828317299536749tmp surefire_07567660422694846255tmp"/>
    <property name="surefire.test.class.path" value="/home/athuls89/Desktop/OSL/msr/calcite/myprocessor/edge-processor/nifi-edge-processors/target/test-classes:/home/athuls89/Desktop/OSL/msr/calcite/myprocessor/edge-processor/nifi-edge-processors/target/classes:/root/.m2/repository/com/esotericsoftware/kryo/5.0.0-RC4/kryo-5.0.0-RC4.jar:/root/.m2/repository/com/esotericsoftware/reflectasm/1.11.8/reflectasm-1.11.8.jar:/root/.m2/repository/org/objenesis/objenesis/3.0.1/objenesis-3.0.1.jar:/root/.m2/repository/com/esotericsoftware/minlog/1.3.1/minlog-1.3.1.jar:/root/.m2/repository/io/reactivex/rxjava-string/1.1.1/rxjava-string-1.1.1.jar:/root/.m2/repository/commons-io/commons-io/2.5/commons-io-2.5.jar:/root/.m2/repository/io/reactivex/rxjava/1.2.3/rxjava-1.2.3.jar:/root/.m2/repository/com/google/protobuf/protobuf-java/3.7.1/protobuf-java-3.7.1.jar:/root/.m2/repository/org/apache/nifi/nifi-api/1.7.0/nifi-api-1.7.0.jar:/root/.m2/repository/org/apache/nifi/nifi-utils/1.7.0/nifi-utils-1.7.0.jar:/root/.m2/repository/org/apache/nifi/nifi-mock/1.7.0/nifi-mock-1.7.0.jar:/root/.m2/repository/org/apache/nifi/nifi-framework-api/1.7.0/nifi-framework-api-1.7.0.jar:/root/.m2/repository/org/apache/nifi/nifi-expression-language/1.7.0/nifi-expression-language-1.7.0.jar:/root/.m2/repository/org/antlr/antlr-runtime/3.5.2/antlr-runtime-3.5.2.jar:/root/.m2/repository/com/jayway/jsonpath/json-path/2.4.0/json-path-2.4.0.jar:/root/.m2/repository/net/minidev/json-smart/2.3/json-smart-2.3.jar:/root/.m2/repository/net/minidev/accessors-smart/1.2/accessors-smart-1.2.jar:/root/.m2/repository/org/ow2/asm/asm/5.0.4/asm-5.0.4.jar:/root/.m2/repository/com/fasterxml/jackson/core/jackson-databind/2.9.5/jackson-databind-2.9.5.jar:/root/.m2/repository/com/fasterxml/jackson/core/jackson-annotations/2.9.0/jackson-annotations-2.9.0.jar:/root/.m2/repository/com/fasterxml/jackson/core/jackson-core/2.9.5/jackson-core-2.9.5.jar:/root/.m2/repository/org/apache/commons/commons-lang3/3.7/commons-lang3-3.7.jar:/root/.m2/repository/org/apache/nifi/nifi-data-provenance-utils/1.7.0/nifi-data-provenance-utils-1.7.0.jar:/root/.m2/repository/org/apache/nifi/nifi-security-utils/1.7.0/nifi-security-utils-1.7.0.jar:/root/.m2/repository/commons-codec/commons-codec/1.11/commons-codec-1.11.jar:/root/.m2/repository/org/bouncycastle/bcpkix-jdk15on/1.59/bcpkix-jdk15on-1.59.jar:/root/.m2/repository/org/bouncycastle/bcprov-jdk15on/1.59/bcprov-jdk15on-1.59.jar:/root/.m2/repository/org/apache/nifi/nifi-properties-loader/1.7.0/nifi-properties-loader-1.7.0.jar:/root/.m2/repository/ch/qos/logback/logback-classic/1.2.3/logback-classic-1.2.3.jar:/root/.m2/repository/ch/qos/logback/logback-core/1.2.3/logback-core-1.2.3.jar:/root/.m2/repository/org/apache/nifi/nifi-properties/1.7.0/nifi-properties-1.7.0.jar:/root/.m2/repository/org/slf4j/slf4j-simple/1.7.25/slf4j-simple-1.7.25.jar:/root/.m2/repository/org/slf4j/slf4j-api/1.7.25/slf4j-api-1.7.25.jar:/root/.m2/repository/junit/junit/4.12/junit-4.12.jar:/root/.m2/repository/org/hamcrest/hamcrest-core/1.3/hamcrest-core-1.3.jar:/root/.m2/repository/io/reactivex/rxjava2/rxjava/2.2.17/rxjava-2.2.17.jar:/root/.m2/repository/org/reactivestreams/reactive-streams/1.0.3/reactive-streams-1.0.3.jar:/root/.m2/repository/io/reactivex/rxjava-math/1.0.0/rxjava-math-1.0.0.jar:/root/.m2/repository/org/mockito/mockito-core/1.10.19/mockito-core-1.10.19.jar:/root/.m2/repository/org/codehaus/groovy/groovy-all/2.4.13/groovy-all-2.4.13.jar:"/>
    <property name="sun.cpu.endian" value="little"/>
    <property name="user.home" value="/root"/>
    <property name="user.language" value="en"/>
    <property name="java.specification.vendor" value="Oracle Corporation"/>
    <property name="java.home" value="/usr/lib/jvm/java-8-openjdk-amd64/jre"/>
    <property name="basedir" value="/home/athuls89/Desktop/OSL/msr/calcite/myprocessor/edge-processor/nifi-edge-processors"/>
    <property name="file.separator" value="/"/>
    <property name="line.separator" value="&#10;"/>
    <property name="java.vm.specification.vendor" value="Oracle Corporation"/>
    <property name="java.specification.name" value="Java Platform API Specification"/>
    <property name="java.awt.graphicsenv" value="sun.awt.X11GraphicsEnvironment"/>
    <property name="java.awt.headless" value="true"/>
    <property name="surefire.real.class.path" value="/home/athuls89/Desktop/OSL/msr/calcite/myprocessor/edge-processor/nifi-edge-processors/target/surefire/surefirebooter6538287704698114887.jar"/>
    <property name="sun.boot.class.path" value="/usr/lib/jvm/java-8-openjdk-amd64/jre/lib/resources.jar:/usr/lib/jvm/java-8-openjdk-amd64/jre/lib/rt.jar:/usr/lib/jvm/java-8-openjdk-amd64/jre/lib/sunrsasign.jar:/usr/lib/jvm/java-8-openjdk-amd64/jre/lib/jsse.jar:/usr/lib/jvm/java-8-openjdk-amd64/jre/lib/jce.jar:/usr/lib/jvm/java-8-openjdk-amd64/jre/lib/charsets.jar:/usr/lib/jvm/java-8-openjdk-amd64/jre/lib/jfr.jar:/usr/lib/jvm/java-8-openjdk-amd64/jre/classes"/>
    <property name="sun.management.compiler" value="HotSpot 64-Bit Tiered Compilers"/>
    <property name="java.runtime.version" value="1.8.0_242-8u242-b08-0ubuntu3~16.04-b08"/>
    <property name="java.net.preferIPv4Stack" value="true"/>
    <property name="user.name" value="root"/>
    <property name="path.separator" value=":"/>
    <property name="os.version" value="4.4.0-176-generic"/>
    <property name="java.endorsed.dirs" value="/usr/lib/jvm/java-8-openjdk-amd64/jre/lib/endorsed"/>
    <property name="java.runtime.name" value="OpenJDK Runtime Environment"/>
    <property name="file.encoding" value="UTF-8"/>
    <property name="java.vm.name" value="OpenJDK 64-Bit Server VM"/>
    <property name="localRepository" value="/root/.m2/repository"/>
    <property name="java.vendor.url.bug" value="http://bugreport.sun.com/bugreport/"/>
    <property name="java.io.tmpdir" value="/tmp"/>
    <property name="java.version" value="1.8.0_242"/>
    <property name="user.dir" value="/home/athuls89/Desktop/OSL/msr/calcite/myprocessor/edge-processor/nifi-edge-processors"/>
    <property name="os.arch" value="amd64"/>
    <property name="java.vm.specification.name" value="Java Virtual Machine Specification"/>
    <property name="java.awt.printerjob" value="sun.print.PSPrinterJob"/>
    <property name="sun.os.patch.level" value="unknown"/>
    <property name="java.library.path" value="/usr/java/packages/lib/amd64:/usr/lib/x86_64-linux-gnu/jni:/lib/x86_64-linux-gnu:/usr/lib/x86_64-linux-gnu:/usr/lib/jni:/lib:/usr/lib"/>
    <property name="java.vm.info" value="mixed mode"/>
    <property name="java.vendor" value="Private Build"/>
    <property name="java.vm.version" value="25.242-b08"/>
    <property name="java.ext.dirs" value="/usr/lib/jvm/java-8-openjdk-amd64/jre/lib/ext:/usr/java/packages/lib/ext"/>
    <property name="sun.io.unicode.encoding" value="UnicodeLittle"/>
    <property name="java.class.version" value="52.0"/>
  </properties>
  <testcase name="testProcessor" classname="com.jarvis.processors.edge.MyProcessorTest" time="0.705"/>
</testsuite>